%YAML 1.1
%TAG !u! tag:unity3d.com,2011:
--- !u!1045 &1
EditorBuildSettings:
  m_ObjectHideFlags: 0
  serializedVersion: 2
  m_Scenes:
  - enabled: 1
    path: Assets/Scenes/Menu.unity
    guid: 2363a8dcc51d30b41b2378e9df6327dd
  - enabled: 1
    path: Assets/Scenes/Level_Selection.unity
    guid: 747a73cb1ade1fd47838232943c737c5
